…
When you run $\texttt{filter()}$, dplyr executes the filtering operation, creating a new data frame and then prints it. dplyr functions never modify their inputs, so to save the result you need to use the assignment operator.

#### $\texttt{arrange()}$

$\texttt{arrange()}$ changes the order of the rows based on the value of the columns. It takes a date frame and a set of column names to order by. If you provide more than one column name, each additional column will be used to break ties in the values of preceding columns. For example, the following code sorts the data by the departure time:

```r
# Code 3
# Sort the flights by departure time
flights |>
  arrange(year, month, day, dep_time)
```

```output
# A tibble: 336,776 × 19
    year month   day dep_time sched_dep_time dep_delay arr_time sched_arr_time
   <int> <int> <int>    <int>          <int>     <dbl>    <int>          <int>
 1  2013     1     1      517            515         2      830            819
 2  2013     1     1      533            529         4      850            830
 3  2013     1     1      542            540         2      923            850
 4  2013     1     1      544            545        -1     1004           1022
 5  2013     1     1      554            600        -6      812            837
 6  2013     1     1      554            558        -4      740            728
 7  2013     1     1      555            600        -5      913            854
 8  2013     1     1      557            600        -3      709            723
 9  2013     1     1      557            600        -3      838            846
10  2013     1     1      558            600        -2      753            745
# ℹ 336,766 more rows
# ℹ 11 more variables: arr_delay <dbl>, carrier <chr>, flight <int>,
#   tailnum <chr>, origin <chr>, dest <chr>, air_time <dbl>, distance <dbl>,
#   hour <dbl>, minute <dbl>, time_hour <dttm>
# ℹ Use `print(n = ...)` to see more rows
```

You can use $\texttt{desc()}$ on a column inside of $\texttt{arrange()}$ to reorder the data frame based on that column in descending order. For example, this code orders flights from most to least delayed:

```r
# Code 4
# Order the flights from most to least delayed
flights |>
  arrange(desc(dep_delay))
```

```output
# A tibble: 336,776 × 19
    year month   day dep_time sched_dep_time dep_delay arr_time sched_arr_time
   <int> <int> <int>    <int>          <int>     <dbl>    <int>          <int>
 1  2013     1     9      641            900      1301     1242           1530
 2  2013     6    15     1432           1935      1137     1607           2120
 3  2013     1    10     1121           1635      1126     1239           1810
 4  2013     9    20     1139           1845      1014     1457           2210
 5  2013     7    22      845           1600      1005     1044           1815
 6  2013     4    10     1100           1900       960     1342           2211
 7  2013     3    17     2321            810       911      135           1020
 8  2013     6    27      959           1900       899     1236           2226
 9  2013     7    22     2257            759       898      121           1026
10  2013    12     5      756           1700       896     1058           2020
# ℹ 336,766 more rows
# ℹ 11 more variables: arr_delay <dbl>, carrier <chr>, flight <int>,
#   tailnum <chr>, origin <chr>, dest <chr>, air_time <dbl>, distance <dbl>,
#   hour <dbl>, minute <dbl>, time_hour <dttm>
# ℹ Use `print(n = ...)` to see more rows
```
…
#### $\texttt{mutate()}$

The job of $\texttt{mutate()}$ is to add new columns that are calculated from the existing columns. In the following we use $\texttt{mutate()}$ to calculate the gain (how much time a delayed flight made up in the air) and average speed.

```r
# Code 6
# Create new columns for gain an average speed
flights |>
  mutate(gain = dep_delay - arr_delay,
         speed = distance / air_time * 60,
         .before = 1)
```

```output
# A tibble: 336,776 × 21
    gain speed  year month   day dep_time sched_dep_time dep_delay arr_time
   <dbl> <dbl> <int> <int> <int>    <int>          <int>     <dbl>    <int>
 1    -9  370.  2013     1     1      517            515         2      830
 2   -16  374.  2013     1     1      533            529         4      850
 3   -31  408.  2013     1     1      542            540         2      923
 4    17  517.  2013     1     1      544            545        -1     1004
 5    19  394.  2013     1     1      554            600        -6      812
 6   -16  288.  2013     1     1      554            558        -4      740
 7   -24  404.  2013     1     1      555            600        -5      913
 8    11  259.  2013     1     1      557            600        -3      709
 9     5  405.  2013     1     1      557            600        -3      838
10   -10  319.  2013     1     1      558            600        -2      753
# ℹ 336,766 more rows
# ℹ 12 more variables: sched_arr_time <int>, arr_delay <dbl>, carrier <chr>,
#   flight <int>, tailnum <chr>, origin <chr>, dest <chr>, air_time <dbl>,
#   distance <dbl>, hour <dbl>, minute <dbl>, time_hour <dttm>
# ℹ Use `print(n = ...)` to see more rows
```
…
The pipe is a powerful tool for combining multiple verbs. For example, imagine that you wanted to find the fastest flights to Houston's IAH airport: you need to combine $\texttt{filter()}$, $\texttt{mutate()}$, $\texttt{select()}$ and $\texttt{arrange()}$:

```r
# Code 8
# Combining verbs with the pipe
flights |>
  filter(dest == "IAH") |>
  mutate(speed = distance / air_time * 60) |>
  select(year:day, dep_time, carrier, flight, speed) |>
  arrange(desc(speed))
```

```output
# A tibble: 7,198 × 7
    year month   day dep_time carrier flight speed
   <int> <int> <int>    <int> <chr>    <int> <dbl>
 1  2013     7     9      707 UA         226  522.
 2  2013     8    27     1850 UA        1128  521.
 3  2013     8    28      902 UA        1711  519.
 4  2013     8    28     2122 UA        1022  519.
 5  2013     6    11     1628 UA        1178  515.
 6  2013     8    27     1017 UA         333  515.
 7  2013     8    27     1205 UA        1421  515.
 8  2013     8    27     1758 UA         302  515.
 9  2013     9    27      521 UA         252  515.
10  2013     8    28      625 UA         559  515.
# ℹ 7,188 more rows
# ℹ Use `print(n = ...)` to see more rows
```
…
